<?xml version="1.0" encoding="UTF-8"?>
<kml xmlns="http://www.opengis.net/kml/2.2">
<Document><name>My document</name>
<description>Content</description>
<Style id="Lump">
<LineStyle><color>CD0000FF</color><width>1</width></LineStyle>
<PolyStyle><color>9AFF0000</color></PolyStyle>
</Style>
<Style id="Path">
<LineStyle><color>FF0000FF</color><width>1</width></LineStyle>
</Style>
<Style id="markerstyle">
<IconStyle><Icon><href>
http://maps.google.com/intl/en_us/mapfiles/ms/micons/red-dot.png
</href></Icon></IconStyle>
</Style>
<Placemark><name>Piaseczno Miasto</name>
<description>YES</description>
<styleUrl>#Path</styleUrl>
<LineString>
<tessellate>1</tessellate>
<altitudeMode>clampToGround</altitudeMode>
<coordinates>
20.9891058321081,52.0648555521446,0.0
20.9914814839018,52.0679200593606,0.0
20.9876124936539,52.0691030039176,0.0
20.987689781813,52.0737590736199,0.0
21.0052203358327,52.0738493809723,0.0
21.0069924620255,52.0729838086963,0.0
21.0059621465987,52.0709212855114,0.0
21.0120302310642,52.0723354281024,0.0
21.0039356267636,52.079487697832,0.0
21.0150121232306,52.0810370671455,0.0
21.0118624866375,52.0964982642441,0.0
21.0248626256359,52.0993659220676,0.0
21.0352985328688,52.0931168508073,0.0
21.0615259622922,52.0872873260308,0.0
21.0597623394745,52.0822244966844,0.0
21.0535486986961,52.0831885923873,0.0
21.0493580927461,52.0790389879158,0.0
21.0520961285364,52.0755147883902,0.0
21.0405227055943,52.0675298282946,0.0
21.0361126471669,52.0592180584376,0.0
21.0277580026162,52.0597506232928,0.0
21.0265913473652,52.054368112801,0.0
21.0241830322481,52.0541076251993,0.0
21.0260485742733,52.0519257645548,0.0
21.0221078402946,52.048966113427,0.0
21.0113508526898,52.04875589941,0.0
21.005169622551,52.0510754318924,0.0
20.9981390014755,52.0491904326119,0.0
20.9961103726171,52.0511168468624,0.0
20.9779457262928,52.0464600235689,0.0
20.9736363546869,52.0527814934374,0.0
20.9916589699866,52.0569039474804,0.0
20.9910414269632,52.0596485510738,0.0
20.978698232175,52.0609111518294,0.0
20.982395809159,52.0629731886927,0.0
20.988816449058,52.0611759096592,0.0
20.9891058321081,52.0648555521446

</coordinates>
</LineString>
</Placemark>

<Placemark><name>Piaseczno gmina</name>
<description>YES</description>
<styleUrl>#Path</styleUrl>
<LineString>
<tessellate>1</tessellate>
<altitudeMode>clampToGround</altitudeMode>
<coordinates>
21.0612582024096,52.0132744449291,0.0
21.0398002917657,52.010192868767,0.0
21.0401381267021,52.0127525642325,0.0
21.0287027080197,52.0137692255724,0.0
21.0283052069557,52.0119708884796,0.0
21.0326510443285,52.0110478957676,0.0
21.0288809714033,52.0098359005764,0.0
21.0283659849898,51.9942190256132,0.0
21.0193661227987,51.9953451833569,0.0
20.9877106442162,51.9923499261355,0.0
20.9776680004097,51.9979719460539,0.0
20.9654184619872,52.0007650571953,0.0
20.9605945132835,51.9979257770671,0.0
20.9433880098,51.9984024370186,0.0
20.9363246912842,51.9865569777625,0.0
20.9320351889309,51.9862190187053,0.0
20.9037570884771,51.9917372926174,0.0
20.9061770492773,51.9978778950447,0.0
20.8895017240072,51.9986073567651,0.0
20.8879116345637,52.0057955584527,0.0
20.8680150347431,52.0185593963248,0.0
20.8710416286178,52.0235728880433,0.0
20.8883216118482,52.0342224189652,0.0
20.8865200865607,52.0344725010466,0.0
20.8991923157031,52.0618980297455,0.0
20.9105323454852,52.0671629930862,0.0
20.9198535378306,52.0593948616134,0.0
20.9333796324615,52.0643574935694,0.0
20.9558554079584,52.0529667254353,0.0
20.9605024637,52.0549886572792,0.0
20.9469381246514,52.0622157975672,0.0
20.9517453514036,52.0685043174158,0.0
20.9604226552102,52.0677643514429,0.0
20.9642011747919,52.0748562513539,0.0
20.9720684618636,52.0741576058267,0.0
20.9743266895858,52.0726536290202,0.0
20.97486999969,52.0650168881552,0.0
20.982395809159,52.0629731886927,0.0
20.978698232175,52.0609111518294,0.0
20.9910214979873,52.0596261223478,0.0
20.9913301577075,52.0584950880279,0.0
20.9916589699866,52.0569039474804,0.0
20.9736363546869,52.0527814934374,0.0
20.9779457262928,52.0464600235689,0.0
20.9961103726171,52.0511168468624,0.0
20.9981390014755,52.0491904326119,0.0
21.005169622551,52.0510754318924,0.0
21.0113508526898,52.04875589941,0.0
21.0221078402946,52.048966113427,0.0
21.0260485742733,52.0519257645548,0.0
21.0241830322481,52.0541076251993,0.0
21.0265913473652,52.054368112801,0.0
21.0277580026162,52.0597506232928,0.0
21.0361126471669,52.0592180584376,0.0
21.0405227055943,52.0675298282946,0.0
21.0520961285364,52.0755147883902,0.0
21.0493580927461,52.0790389879158,0.0
21.0535486986961,52.0831885923873,0.0
21.0597623394745,52.0822244966844,0.0
21.0615259622922,52.0872873260308,0.0
21.0352985328688,52.0931168508073,0.0
21.0262335855027,52.0987790548996,0.0
21.0436192668393,52.1129311293485,0.0
21.0502375394006,52.1069605133444,0.0
21.0691766939447,52.098950950721,0.0
21.0649758167675,52.0959674788135,0.0
21.0664572100167,52.0933006529438,0.0
21.0761319576391,52.0840395069062,0.0
21.0849956791938,52.0810498640338,0.0
21.067664642357,52.0800349646072,0.0
21.0662462290596,52.0766867343472,0.0
21.0774371333676,52.0731213347598,0.0
21.0688781633194,52.068591171993,0.0
21.0767542251626,52.0646586861888,0.0
21.088689189246,52.0692229257473,0.0
21.0959454593836,52.0649453905668,0.0
21.0878348739997,52.0616072060867,0.0
21.0877457774914,52.0504080124592,0.0
21.0944264764399,52.0500280026605,0.0
21.0950156714787,52.0480431133891,0.0
21.0942091984766,52.0352813877622,0.0
21.1003580718125,52.0281363451118,0.0
21.1022036135492,52.0218597041854,0.0
21.1150865299234,52.022308727336,0.0
21.1290136038986,51.9980907800377,0.0
21.1265987504015,51.9970268919593,0.0
21.1161271827913,52.0035439195609,0.0
21.0980551524116,52.0094108276018,0.0
21.0902127212303,52.0039103715072,0.0
21.0707772543738,51.9997191279108,0.0
21.0612582024096,52.0132744449291,0.0
</coordinates>
</LineString>
</Placemark>
</Document>
</kml>
